lab1_input/step2/verilog_input/test.vcd
$date
	Mon Feb 20 19:56:27 2017
$end
$version
	Icarus Verilog
$end
$timescale
	1ps
$end
$scope module TB2 $end
$var wire 4 ! leds [3:0] $end
$var reg 1 " clk $end
$var reg 1 # rst $end
$scope module DUT $end
$var wire 1 $ clk $end
$var wire 1 % clk_en $end
$var wire 4 & gray_out [3:0] $end
$var wire 1 ' rst $end
$var integer 32 ( i [31:0] $end
$var integer 32 ) j [31:0] $end
$var reg 2 * or_res [2:1] $end
$var reg 5 + state [4:0] $end
$var reg 5 , toogle [4:0] $end
$upscope $end
$upscope $end
$enddefinitions $end
#0
$dumpvars
b10001 ,
b10000 +
b0 *
bx )
b100 (
0'
b1000 &
1%
1$
0#
1"
b1000 !
$end
#5000
0"
0$
1#
1'
#10000
b11 *
b11 ,
b0 !
b0 &
b100 (
b1 +
b101 )
1"
1$
#15000
0"
0$
#20000
b10 *
b101 ,
b1 !
b1 &
b100 (
b10 +
b101 )
1"
1$
#25000
0"
0$
#30000
b11 *
b11 ,
b11 !
b11 &
b100 (
b111 +
b101 )
1"
1$
#35000
0"
0$
#40000
b0 *
b1001 ,
b10 !
b10 &
b100 (
b100 +
b101 )
1"
1$
#45000
0"
0$
#50000
b11 *
b11 ,
b110 !
b110 &
b100 (
b1101 +
b101 )
1"
1$
#55000
0"
0$
#60000
b10 *
b101 ,
b111 !
b111 &
b100 (
b1110 +
b101 )
1"
1$
#65000
0"
0$
#70000
b11 *
b11 ,
b101 !
b101 &
b100 (
b1011 +
b101 )
1"
1$
#75000
0"
0$
#80000
b0 *
b10001 ,
b100 !
b100 &
b100 (
b1000 +
b101 )
1"
1$
#85000
0"
0$
#90000
b11 *
b11 ,
b1100 !
b1100 &
b100 (
b11001 +
b101 )
1"
1$
#95000
0"
0$
#100000
b10 *
b101 ,
b1101 !
b1101 &
b100 (
b11010 +
b101 )
1"
1$
#105000
0"
0$
#110000
b11 *
b11 ,
b1111 !
b1111 &
b100 (
b11111 +
b101 )
1"
1$
#115000
0"
0$
#120000
b0 *
b1001 ,
b1110 !
b1110 &
b100 (
b11100 +
b101 )
1"
1$
#125000
0"
0$
#130000
b11 *
b11 ,
b1010 !
b1010 &
b100 (
b10101 +
b101 )
1"
1$
#135000
0"
0$
#140000
b10 *
b101 ,
b1011 !
b1011 &
b100 (
b10110 +
b101 )
1"
1$
#145000
0"
0$
#150000
b11 *
b11 ,
b1001 !
b1001 &
b100 (
b10011 +
b101 )
1"
1$
#155000
0"
0$
#160000
b0 *
b10001 ,
b1000 !
b1000 &
b100 (
b10000 +
b101 )
1"
1$
#165000
0"
0$
#170000
b11 *
b11 ,
b0 !
b0 &
b100 (
b1 +
b101 )
1"
1$
#175000
0"
0$
#180000
b10 *
b101 ,
b1 !
b1 &
b100 (
b10 +
b101 )
1"
1$
#185000
0"
0$
#190000
b11 *
b11 ,
b11 !
b11 &
b100 (
b111 +
b101 )
1"
1$
#195000
0"
0$
#200000
b0 *
b1001 ,
b10 !
b10 &
b100 (
b100 +
b101 )
1"
1$
#205000
0"
0$
#210000
b11 *
b11 ,
b110 !
b110 &
b100 (
b1101 +
b101 )
1"
1$
#215000
0"
0$
#220000
b10 *
b101 ,
b111 !
b111 &
b100 (
b1110 +
b101 )
1"
1$
#225000
0"
0$
#230000
b11 *
b11 ,
b101 !
b101 &
b100 (
b1011 +
b101 )
1"
1$
#235000
0"
0$
#240000
b0 *
b10001 ,
b100 !
b100 &
b100 (
b1000 +
b101 )
1"
1$
#245000
0"
0$
#250000
b11 *
b11 ,
b1100 !
b1100 &
b100 (
b11001 +
b101 )
1"
1$
#255000
0"
0$
#260000
b10 *
b101 ,
b1101 !
b1101 &
b100 (
b11010 +
b101 )
1"
1$
#265000
0"
0$
#270000
b11 *
b11 ,
b1111 !
b1111 &
b100 (
b11111 +
b101 )
1"
1$
#275000
0"
0$
#280000
b0 *
b1001 ,
b1110 !
b1110 &
b100 (
b11100 +
b101 )
1"
1$
#285000
0"
0$
#290000
b11 *
b11 ,
b1010 !
b1010 &
b100 (
b10101 +
b101 )
1"
1$
#295000
0"
0$
#300000
b10 *
b101 ,
b1011 !
b1011 &
b100 (
b10110 +
b101 )
1"
1$
#305000
0"
0$
#310000
b11 *
b11 ,
b1001 !
b1001 &
b100 (
b10011 +
b101 )
1"
1$
#315000
0"
0$
#320000
b0 *
b10001 ,
b1000 !
b1000 &
b100 (
b10000 +
b101 )
1"
1$
#325000
0"
0$
#330000
b11 *
b11 ,
b0 !
b0 &
b100 (
b1 +
b101 )
1"
1$
#335000
0"
0$
#340000
b10 *
b101 ,
b1 !
b1 &
b100 (
b10 +
b101 )
1"
1$
#345000
0"
0$
#350000
b11 *
b11 ,
b11 !
b11 &
b100 (
b111 +
b101 )
1"
1$
#355000
0"
0$
#360000
b0 *
b1001 ,
b10 !
b10 &
b100 (
b100 +
b101 )
1"
1$
#365000
0"
0$
#370000
b11 *
b11 ,
b110 !
b110 &
b100 (
b1101 +
b101 )
1"
1$
#375000
0"
0$
#380000
b10 *
b101 ,
b111 !
b111 &
b100 (
b1110 +
b101 )
1"
1$
#385000
0"
0$
#390000
b11 *
b11 ,
b101 !
b101 &
b100 (
b1011 +
b101 )
1"
1$
#395000
0"
0$
#400000
b0 *
b10001 ,
b100 !
b100 &
b100 (
b1000 +
b101 )
1"
1$
#405000
0"
0$
#410000
b11 *
b11 ,
b1100 !
b1100 &
b100 (
b11001 +
b101 )
1"
1$
#415000
0"
0$
#420000
b10 *
b101 ,
b1101 !
b1101 &
b100 (
b11010 +
b101 )
1"
1$
#425000
0"
0$
#430000
b11 *
b11 ,
b1111 !
b1111 &
b100 (
b11111 +
b101 )
1"
1$
#435000
0"
0$
#440000
b0 *
b1001 ,
b1110 !
b1110 &
b100 (
b11100 +
b101 )
1"
1$
#445000
0"
0$
#450000
b11 *
b11 ,
b1010 !
b1010 &
b100 (
b10101 +
b101 )
1"
1$
#455000
0"
0$
#460000
b10 *
b101 ,
b1011 !
b1011 &
b100 (
b10110 +
b101 )
1"
1$
#465000
0"
0$
#470000
b11 *
b11 ,
b1001 !
b1001 &
b100 (
b10011 +
b101 )
1"
1$
#475000
0"
0$
#480000
b0 *
b10001 ,
b1000 !
b1000 &
b100 (
b10000 +
b101 )
1"
1$
#485000
0"
0$
#490000
b11 *
b11 ,
b0 !
b0 &
b100 (
b1 +
b101 )
1"
1$
#495000
0"
0$
#500000
b10 *
b101 ,
b1 !
b1 &
b100 (
b10 +
b101 )
1"
1$
#505000
0"
0$
#510000
b11 *
b11 ,
b11 !
b11 &
b100 (
b111 +
b101 )
1"
1$
#515000
0"
0$
#520000
b0 *
b1001 ,
b10 !
b10 &
b100 (
b100 +
b101 )
1"
1$
#525000
0"
0$
#530000
b11 *
b11 ,
b110 !
b110 &
b100 (
b1101 +
b101 )
1"
1$
#535000
0"
0$
#540000
b10 *
b101 ,
b111 !
b111 &
b100 (
b1110 +
b101 )
1"
1$
#545000
0"
0$
#550000
b11 *
b11 ,
b101 !
b101 &
b100 (
b1011 +
b101 )
1"
1$
#555000
0"
0$
#560000
b0 *
b10001 ,
b100 !
b100 &
b100 (
b1000 +
b101 )
1"
1$
#565000
0"
0$
#570000
b11 *
b11 ,
b1100 !
b1100 &
b100 (
b11001 +
b101 )
1"
1$
#575000
0"
0$
#580000
b10 *
b101 ,
b1101 !
b1101 &
b100 (
b11010 +
b101 )
1"
1$
#585000
0"
0$
#590000
b11 *
b11 ,
b1111 !
b1111 &
b100 (
b11111 +
b101 )
1"
1$
#595000
0"
0$
#600000
b0 *
b1001 ,
b1110 !
b1110 &
b100 (
b11100 +
b101 )
1"
1$
#605000
0"
0$
#610000
b11 *
b11 ,
b1010 !
b1010 &
b100 (
b10101 +
b101 )
1"
1$
#615000
0"
0$
#620000
b10 *
b101 ,
b1011 !
b1011 &
b100 (
b10110 +
b101 )
1"
1$
#625000
0"
0$
#630000
b11 *
b11 ,
b1001 !
b1001 &
b100 (
b10011 +
b101 )
1"
1$
#635000
0"
0$
#640000
b0 *
b10001 ,
b1000 !
b1000 &
b100 (
b10000 +
b101 )
1"
1$
#645000
0"
0$
#650000
b11 *
b11 ,
b0 !
b0 &
b100 (
b1 +
b101 )
1"
1$
